[
  { "id": 0, "title": "Cat", "unit_price": 150, "image_url": "/images/cat.jpg" },
  { "id": 1, "title": "Dog", "unit_price": 200, "image_url": "/images/dog.jpg" },
  { "id": 2, "title": "Bird", "unit_price": 30, "image_url": "/images/bird.jpg" },
  { "id": 3, "title": "Fish", "unit_price": 10, "image_url": "/images/fish.jpg" },
  { "id": 4, "title": "Rabbit", "unit_price": 50, "image_url": "/images/rabbit.jpg" },
  { "id": 5, "title": "Hamster", "unit_price": 30, "image_url": "/images/hamster.jpg" },
  { "id": 6, "title": "Pony", "unit_price": 3000, "image_url": "/images/pony.jpg" },
  { "id": 7, "title": "Chicken", "unit_price": 20, "image_url": "/images/chicken.jpg" }
]
